<svg width="48" height="48" viewBox="0 0 48 48" fill="none" xmlns="http://www.w3.org/2000/svg">
<g filter="url(#filter0_d_214_4282)">
<path d="M48 22C48 34.1503 38.1503 44 26 44C13.8497 44 4 34.1503 4 22C4 9.84974 13.8497 0 26 0C38.1503 0 48 9.84974 48 22Z" fill="#5CBBB8" fill-opacity="0.3" shape-rendering="crispEdges"/>
<path d="M47.5 22C47.5 33.8741 37.8741 43.5 26 43.5C14.1259 43.5 4.5 33.8741 4.5 22C4.5 10.1259 14.1259 0.5 26 0.5C37.8741 0.5 47.5 10.1259 47.5 22Z" stroke="#5CBBB8" stroke-opacity="0.3" shape-rendering="crispEdges"/>
</g>
<path d="M46 22C46 33.0457 37.0457 42 26 42C14.9543 42 6 33.0457 6 22C6 10.9543 14.9543 2 26 2C37.0457 2 46 10.9543 46 22Z" fill="#5CBBB8"/>
<path d="M37.8937 29.3052L35.1499 27.4759L32.7108 25.8501C32.24 25.5369 31.6074 25.6395 31.2599 26.0856L29.7506 28.0259C29.4264 28.4469 28.8432 28.5679 28.3783 28.3105C27.3542 27.7409 26.1431 27.2045 23.471 24.529C20.7989 21.8534 20.2591 20.6458 19.6894 19.6217C19.432 19.1568 19.553 18.5736 19.974 18.2494L21.9143 16.7401C22.3604 16.3926 22.4631 15.76 22.1499 15.2892L20.574 12.9252L18.6948 10.1063C18.3749 9.62645 17.7346 9.4824 17.2401 9.77896L15.0727 11.0792C14.487 11.4243 14.0565 11.9815 13.8702 12.6354C13.2776 14.7963 13.1581 19.5632 20.7976 27.2027C28.4371 34.8423 33.2036 34.7224 35.3645 34.1297C36.0184 33.9435 36.5756 33.5129 36.9207 32.9272L38.221 30.7599C38.5176 30.2653 38.3735 29.6251 37.8937 29.3052Z" fill="white"/>
<path d="M27.706 13.4654C31.7105 13.4699 34.9558 16.7151 34.9602 20.7197C34.9602 20.9553 35.1513 21.1464 35.387 21.1464C35.6226 21.1464 35.8137 20.9554 35.8137 20.7197C35.8088 16.244 32.1817 12.6169 27.706 12.612C27.4704 12.612 27.2793 12.803 27.2793 13.0387C27.2792 13.2743 27.4703 13.4654 27.706 13.4654Z" fill="white"/>
<path d="M27.706 16.0258C30.2972 16.0288 32.3969 18.1286 32.3999 20.7196C32.3999 20.9553 32.591 21.1464 32.8267 21.1464C33.0623 21.1464 33.2534 20.9553 33.2534 20.7196C33.2499 17.6574 30.7683 15.1758 27.706 15.1723C27.4704 15.1723 27.2793 15.3633 27.2793 15.599C27.2793 15.8347 27.4703 16.0258 27.706 16.0258Z" fill="white"/>
<path d="M27.706 18.586C28.8838 18.5874 29.8382 19.5418 29.8396 20.7196C29.8396 20.9553 30.0306 21.1464 30.2663 21.1464C30.502 21.1464 30.6931 20.9553 30.6931 20.7196C30.6912 19.0707 29.3549 17.7345 27.706 17.7326C27.4704 17.7326 27.2793 17.9236 27.2793 18.1593C27.2792 18.395 27.4703 18.586 27.706 18.586Z" fill="white"/>
<defs>
<filter id="filter0_d_214_4282" x="0" y="0" width="48" height="48" filterUnits="userSpaceOnUse" color-interpolation-filters="sRGB">
<feFlood flood-opacity="0" result="BackgroundImageFix"/>
<feColorMatrix in="SourceAlpha" type="matrix" values="0 0 0 0 0 0 0 0 0 0 0 0 0 0 0 0 0 0 127 0" result="hardAlpha"/>
<feOffset dx="-2" dy="2"/>
<feGaussianBlur stdDeviation="1"/>
<feComposite in2="hardAlpha" operator="out"/>
<feColorMatrix type="matrix" values="0 0 0 0 0 0 0 0 0 0 0 0 0 0 0 0 0 0 0.15 0"/>
<feBlend mode="normal" in2="BackgroundImageFix" result="effect1_dropShadow_214_4282"/>
<feBlend mode="normal" in="SourceGraphic" in2="effect1_dropShadow_214_4282" result="shape"/>
</filter>
</defs>
</svg>
